info face="num" size=32 bold=0 italic=0 charset="" unicode=0 stretchH=100 smooth=1 aa=1 padding=0,0,0,0 spacing=1,1
common lineHeight=45 base=26 scaleW=128 scaleH=256 pages=1 packed=0 alphaChnl=1 redChnl=0 greenChnl=0 blueChnl=0
page id=0 file="num.png"
chars count=16
char id=44 x=0 y=218 width=16 height=19 xoffset=0 yoffset=28 xadvance=17 page=0 chnl=0 letter=","
char id=46 x=0 y=238 width=11 height=14 xoffset=0 yoffset=31 xadvance=12 page=0 chnl=0 letter="."
char id=48 x=41 y=44 width=29 height=42 xoffset=0 yoffset=3 xadvance=30 page=0 chnl=0 letter="0"
char id=49 x=61 y=132 width=20 height=42 xoffset=0 yoffset=3 xadvance=21 page=0 chnl=0 letter="1"
char id=50 x=44 y=0 width=29 height=42 xoffset=0 yoffset=3 xadvance=30 page=0 chnl=0 letter="2"
char id=51 x=32 y=89 width=29 height=42 xoffset=0 yoffset=3 xadvance=30 page=0 chnl=0 letter="3"
char id=52 x=0 y=89 width=31 height=42 xoffset=0 yoffset=3 xadvance=32 page=0 chnl=0 letter="4"
char id=53 x=31 y=132 width=29 height=42 xoffset=0 yoffset=3 xadvance=30 page=0 chnl=0 letter="5"
char id=54 x=30 y=175 width=29 height=42 xoffset=0 yoffset=3 xadvance=30 page=0 chnl=0 letter="6"
char id=55 x=60 y=175 width=27 height=42 xoffset=0 yoffset=3 xadvance=28 page=0 chnl=0 letter="7"
char id=56 x=0 y=132 width=30 height=42 xoffset=0 yoffset=3 xadvance=31 page=0 chnl=0 letter="8"
char id=57 x=0 y=175 width=29 height=42 xoffset=0 yoffset=3 xadvance=30 page=0 chnl=0 letter="9"
char id=33836 x=0 y=44 width=40 height=44 xoffset=0 yoffset=3 xadvance=41 page=0 chnl=0 letter="萬"
char id=20740 x=0 y=0 width=43 height=43 xoffset=0 yoffset=3 xadvance=44 page=0 chnl=0 letter="億"
char id=32 x=0 y=0 width=0 height=0 xoffset=0 yoffset=0 xadvance=20 page=0 chnl=0 letter=" "
char id=9 x=0 y=0 width=0 height=0 xoffset=0 yoffset=0 xadvance=160 page=0 chnl=0 letter="	"

kernings count=0
