info face="douniu_wait" size=32 bold=0 italic=0 charset="" unicode=0 stretchH=100 smooth=1 aa=1 padding=0,0,0,0 spacing=1,1
common lineHeight=47 base=26 scaleW=128 scaleH=128 pages=1 packed=0 alphaChnl=1 redChnl=0 greenChnl=0 blueChnl=0
page id=0 file="douniu_wait.png"
chars count=7
char id=31561 x=0 y=47 width=48 height=46 xoffset=0 yoffset=1 xadvance=49 page=0 chnl=0 letter="等"
char id=24453 x=0 y=0 width=48 height=46 xoffset=0 yoffset=1 xadvance=49 page=0 chnl=0 letter="待"
char id=24320 x=49 y=47 width=47 height=46 xoffset=0 yoffset=1 xadvance=48 page=0 chnl=0 letter="开"
char id=22987 x=49 y=0 width=47 height=46 xoffset=0 yoffset=1 xadvance=48 page=0 chnl=0 letter="始"
char id=46 x=0 y=94 width=26 height=21 xoffset=0 yoffset=13 xadvance=27 page=0 chnl=0 letter="."
char id=32 x=0 y=0 width=0 height=0 xoffset=0 yoffset=0 xadvance=20 page=0 chnl=0 letter=" "
char id=9 x=0 y=0 width=0 height=0 xoffset=0 yoffset=0 xadvance=160 page=0 chnl=0 letter="	"

kernings count=0
