info face="txt_lose" size=32 bold=0 italic=0 charset="" unicode=0 stretchH=100 smooth=1 aa=1 padding=0,0,0,0 spacing=1,1
common lineHeight=48 base=26 scaleW=128 scaleH=256 pages=1 packed=0 alphaChnl=1 redChnl=0 greenChnl=0 blueChnl=0
page id=0 file="txt_lose.png"
chars count=20
char id=43 x=28 y=200 width=26 height=26 xoffset=0 yoffset=19 xadvance=27 page=0 chnl=0 letter="+"
char id=45 x=0 y=113 width=28 height=10 xoffset=0 yoffset=27 xadvance=29 page=0 chnl=0 letter="-"
char id=44 x=0 y=237 width=14 height=16 xoffset=0 yoffset=33 xadvance=15 page=0 chnl=0 letter=","
char id=46 x=15 y=237 width=12 height=12 xoffset=0 yoffset=36 xadvance=13 page=0 chnl=0 letter="."
char id=40 x=56 y=153 width=13 height=39 xoffset=0 yoffset=12 xadvance=14 page=0 chnl=0 letter="("
char id=41 x=56 y=113 width=13 height=39 xoffset=0 yoffset=12 xadvance=14 page=0 chnl=0 letter=")"
char id=48 x=0 y=124 width=28 height=37 xoffset=0 yoffset=11 xadvance=29 page=0 chnl=0 letter="0"
char id=49 x=55 y=200 width=17 height=36 xoffset=0 yoffset=11 xadvance=18 page=0 chnl=0 letter="1"
char id=50 x=30 y=76 width=26 height=36 xoffset=0 yoffset=11 xadvance=27 page=0 chnl=0 letter="2"
char id=51 x=39 y=38 width=26 height=37 xoffset=0 yoffset=11 xadvance=27 page=0 chnl=0 letter="3"
char id=52 x=0 y=76 width=29 height=36 xoffset=0 yoffset=11 xadvance=30 page=0 chnl=0 letter="4"
char id=53 x=29 y=113 width=26 height=37 xoffset=0 yoffset=11 xadvance=27 page=0 chnl=0 letter="5"
char id=54 x=28 y=162 width=27 height=37 xoffset=0 yoffset=11 xadvance=28 page=0 chnl=0 letter="6"
char id=55 x=0 y=162 width=27 height=36 xoffset=0 yoffset=11 xadvance=28 page=0 chnl=0 letter="7"
char id=56 x=39 y=0 width=26 height=37 xoffset=0 yoffset=11 xadvance=27 page=0 chnl=0 letter="8"
char id=57 x=0 y=199 width=27 height=37 xoffset=0 yoffset=11 xadvance=28 page=0 chnl=0 letter="9"
char id=19975 x=0 y=39 width=38 height=36 xoffset=0 yoffset=11 xadvance=39 page=0 chnl=0 letter="万"
char id=20159 x=0 y=0 width=38 height=38 xoffset=0 yoffset=9 xadvance=39 page=0 chnl=0 letter="亿"
char id=32 x=0 y=0 width=0 height=0 xoffset=0 yoffset=0 xadvance=20 page=0 chnl=0 letter=" "
char id=9 x=0 y=0 width=0 height=0 xoffset=0 yoffset=0 xadvance=160 page=0 chnl=0 letter="	"

kernings count=0
