info face="loading2_title" size=32 bold=0 italic=0 charset="" unicode=0 stretchH=100 smooth=1 aa=1 padding=0,0,0,0 spacing=1,1
common lineHeight=35 base=26 scaleW=128 scaleH=128 pages=1 packed=0 alphaChnl=1 redChnl=0 greenChnl=0 blueChnl=0
page id=0 file="loading2_title.png"
chars count=8
char id=21162 x=0 y=72 width=35 height=35 xoffset=0 yoffset=0 xadvance=36 page=0 chnl=0 letter="努"
char id=21147 x=0 y=36 width=36 height=35 xoffset=0 yoffset=0 xadvance=37 page=0 chnl=0 letter="力"
char id=21152 x=0 y=0 width=37 height=35 xoffset=0 yoffset=0 xadvance=38 page=0 chnl=0 letter="加"
char id=36733 x=37 y=36 width=32 height=35 xoffset=0 yoffset=0 xadvance=33 page=0 chnl=0 letter="载"
char id=20013 x=36 y=72 width=34 height=35 xoffset=0 yoffset=0 xadvance=35 page=0 chnl=0 letter="中"
char id=46 x=0 y=108 width=14 height=14 xoffset=0 yoffset=20 xadvance=15 page=0 chnl=0 letter="."
char id=32 x=0 y=0 width=0 height=0 xoffset=0 yoffset=0 xadvance=20 page=0 chnl=0 letter=" "
char id=9 x=0 y=0 width=0 height=0 xoffset=0 yoffset=0 xadvance=160 page=0 chnl=0 letter="	"

kernings count=0
